<svg 
 xmlns="http://www.w3.org/2000/svg"
 xmlns:xlink="http://www.w3.org/1999/xlink"
 width="29px" height="21px">
<path fill-rule="evenodd"  fill="rgb(255, 255, 255)"
 d="M-0.000,21.000 L-0.000,-0.000 L29.000,-0.000 L29.000,21.000 L-0.000,21.000 ZM1.403,18.698 L9.730,10.500 L1.403,2.303 L1.403,18.698 ZM2.339,1.382 L12.910,11.789 C14.079,12.941 14.921,12.941 16.091,11.789 L26.662,1.382 L2.339,1.382 ZM26.662,19.618 L18.335,11.422 C16.699,13.033 15.623,14.138 14.500,14.138 C13.378,14.138 12.302,13.033 10.665,11.422 L2.339,19.618 L26.662,19.618 ZM19.271,10.500 L27.597,18.698 L27.597,2.303 L19.271,10.500 Z"/>
</svg>