<?xml version="1.0" encoding="utf-8"?>
<!-- Generator: Adobe Illustrator 21.0.0, SVG Export Plug-In . SVG Version: 6.00 Build 0)  -->
<svg version="1.1" id="Слой_1" xmlns="http://www.w3.org/2000/svg" xmlns:xlink="http://www.w3.org/1999/xlink" x="0px" y="0px"
	 viewBox="0 0 103 216" style="enable-background:new 0 0 103 216;" xml:space="preserve">
<style type="text/css">
	.st0{fill:#FFCB15;}
</style>
<path class="st0" d="M12.7,216c13.2,0,29.4-8,36-17.8l48.7-72.4c6.6-9.8,6.6-25.8,0-35.6L48.7,17.8C42.1,8,25.9,0,12.7,0h-97.4
	c-13.2,0-29.4,8-36,17.8l-48.7,72.4c-6.6,9.8-6.6,25.8,0,35.6l48.7,72.4c6.6,9.8,22.8,17.8,36,17.8H12.7z"/>
</svg>
