<?xml version="1.0" encoding="utf-8"?>
<!-- Generator: Adobe Illustrator 21.0.0, SVG Export Plug-In . SVG Version: 6.00 Build 0)  -->
<svg version="1.1" id="Слой_1" xmlns="http://www.w3.org/2000/svg" xmlns:xlink="http://www.w3.org/1999/xlink" x="0px" y="0px"
	 viewBox="0 0 124.3 216" style="enable-background:new 0 0 124.3 216;" xml:space="preserve">
<style type="text/css">
	.st0{filter:url(#Filter_0);}
	.st1{fill:#43A1F9;}
</style>
<filter  filterUnits="userSpaceOnUse" height="295px" id="Filter_0" width="357px" x="0px" y="0px">
	<feOffset  dx="15" dy="0" in="SourceAlpha"></feOffset>
	<feGaussianBlur  result="blurOut" stdDeviation="3.873"></feGaussianBlur>
	<feFlood  flood-color="rgb(0, 0, 0)" result="floodOut"></feFlood>
	<feComposite  in="floodOut" in2="blurOut" operator="atop"></feComposite>
	<feComponentTransfer>
		<feFuncA  slope="0.25" type="linear"></feFuncA>
	</feComponentTransfer>
	<feMerge>
		<feMergeNode></feMergeNode>
		<feMergeNode  in="SourceGraphic"></feMergeNode>
	</feMerge>
</filter>
<g class="st0">
	<path class="st1" d="M-86.7,216c-13.2,0-29.4-8-36-17.8l-48.7-72.4c-6.6-9.8-6.6-25.8,0-35.6l48.7-72.4C-116.1,8-99.9,0-86.7,0
		h97.4c13.2,0,29.4,8,36,17.8l48.7,72.4c6.6,9.8,6.6,25.8,0,35.6l-48.7,72.4c-6.6,9.8-22.8,17.8-36,17.8H-86.7z"/>
</g>
</svg>
