<svg 
 xmlns="http://www.w3.org/2000/svg"
 xmlns:xlink="http://www.w3.org/1999/xlink"
 width="120px" height="156px">
<path fill-rule="evenodd"  fill="rgb(67, 161, 249)"
 d="M-0.000,50.855 C-0.000,43.508 4.452,34.492 9.893,30.819 L50.106,3.673 C55.548,0.000 64.452,0.000 69.894,3.673 L110.106,30.819 C115.548,34.492 120.000,43.508 120.000,50.855 L120.000,105.145 C120.000,112.491 115.548,121.508 110.106,125.181 L69.894,152.326 C64.452,156.000 55.548,156.000 50.106,152.326 L9.893,125.181 C4.452,121.508 -0.000,112.491 -0.000,105.145 L-0.000,50.855 Z"/>
</svg>